<?xml version="1.0"?>
<svg xmlns="http://www.w3.org/2000/svg" version="1.1" width="801.428588867188pt" height="627.428588867188pt" viewBox="-170.089285714286 -22.9017857142858 801.428571428572 627.428571428572" preserveAspectRatio="none" xmlns:xlink="http://www.w3.org/1999/xlink">
  <defs>
  </defs>
  <path d="M89.25,296.71875 L98.5499954223633,296.71875 " stroke="#6E6E6E" fill="none" stroke-width="1" stroke-opacity="1" />
  <path d="M104.25,296.718719482422 L98.5499954223633,298.938720703125 L98.5499954223633,294.498748779297 L104.25,296.718719482422 " stroke="none" fill="#6E6E6E" fill-rule="evenodd" stroke-width="0" fill-opacity="1" />
  <path d="M104.25,296.718719482422 L98.5499954223633,298.938720703125 L98.5499954223633,294.498748779297 L104.25,296.718719482422 " stroke="#6E6E6E" fill="none" stroke-width="1" stroke-opacity="1" />
  <path d="M178.5,296.71875 L187.799987792969,296.71875 " stroke="#6E6E6E" fill="none" stroke-width="1" stroke-opacity="1" />
  <path d="M193.5,296.718719482422 L187.799987792969,298.938720703125 L187.799987792969,294.498748779297 L193.5,296.718719482422 " stroke="none" fill="#6E6E6E" fill-rule="evenodd" stroke-width="0" fill-opacity="1" />
  <path d="M193.5,296.718719482422 L187.799987792969,298.938720703125 L187.799987792969,294.498748779297 L193.5,296.718719482422 " stroke="#6E6E6E" fill="none" stroke-width="1" stroke-opacity="1" />
  <path d="M267.75,296.71875 L277.049987792969,296.71875 " stroke="#6E6E6E" fill="none" stroke-width="1" stroke-opacity="1" />
  <path d="M282.75,296.718719482422 L277.049987792969,298.938720703125 L277.049987792969,294.498748779297 L282.75,296.718719482422 " stroke="none" fill="#6E6E6E" fill-rule="evenodd" stroke-width="0" fill-opacity="1" />
  <path d="M282.75,296.718719482422 L277.049987792969,298.938720703125 L277.049987792969,294.498748779297 L282.75,296.718719482422 " stroke="#6E6E6E" fill="none" stroke-width="1" stroke-opacity="1" />
  <path d="M255.564010620117,341.574310302734 L282.716033935547,322.636322021484 " stroke="#6E6E6E" fill="none" stroke-width="1" stroke-opacity="1" />
  <path d="M287.391204833984,319.375518798828 L283.986053466797,324.457183837891 L281.446044921875,320.815490722656 L287.391204833984,319.375518798828 " stroke="none" fill="#6E6E6E" fill-rule="evenodd" stroke-width="0" fill-opacity="1" />
  <path d="M287.391204833984,319.375518798828 L283.986053466797,324.457183837891 L281.446044921875,320.815490722656 L287.391204833984,319.375518798828 " stroke="#6E6E6E" fill="none" stroke-width="1" stroke-opacity="1" />
  <path d="M328.044616699219,273.09375 L399.291809082031,67.0605621337891 " stroke="#6E6E6E" fill="none" stroke-width="1" stroke-opacity="1" />
  <path d="M401.154663085938,61.6735610961914 L401.389923095703,67.7860946655273 L397.193725585938,66.3350296020508 L401.154663085938,61.6735610961914 " stroke="none" fill="#6E6E6E" fill-rule="evenodd" stroke-width="0" fill-opacity="1" />
  <path d="M401.154663085938,61.6735610961914 L401.389923095703,67.7860946655273 L397.193725585938,66.3350296020508 L401.154663085938,61.6735610961914 " stroke="#6E6E6E" fill="none" stroke-width="1" stroke-opacity="1" />
  <path d="M330.326202392578,273.09375 L399.305999755859,117.164611816406 " stroke="#6E6E6E" fill="none" stroke-width="1" stroke-opacity="1" />
  <path d="M401.611999511719,111.951889038086 L401.336212158203,118.062728881836 L397.275787353516,116.266479492188 L401.611999511719,111.951889038086 " stroke="none" fill="#6E6E6E" fill-rule="evenodd" stroke-width="0" fill-opacity="1" />
  <path d="M401.611999511719,111.951889038086 L401.336212158203,118.062728881836 L397.275787353516,116.266479492188 L401.611999511719,111.951889038086 " stroke="#6E6E6E" fill="none" stroke-width="1" stroke-opacity="1" />
  <path d="M333.809936523438,273.09375 L396.47314453125,166.855911254883 " stroke="#6E6E6E" fill="none" stroke-width="1" stroke-opacity="1" />
  <path d="M399.368988037109,161.946319580078 L398.385284423828,167.983764648438 L394.560974121094,165.728042602539 L399.368988037109,161.946319580078 " stroke="none" fill="#6E6E6E" fill-rule="evenodd" stroke-width="0" fill-opacity="1" />
  <path d="M399.368988037109,161.946319580078 L398.385284423828,167.983764648438 L394.560974121094,165.728042602539 L399.368988037109,161.946319580078 " stroke="#6E6E6E" fill="none" stroke-width="1" stroke-opacity="1" />
  <path d="M340.777404785156,273.09375 L391.747375488281,215.484848022461 " stroke="#6E6E6E" fill="none" stroke-width="1" stroke-opacity="1" />
  <path d="M395.524383544922,211.215866088867 L393.410003662109,216.95588684082 L390.084716796875,214.013793945313 L395.524383544922,211.215866088867 " stroke="none" fill="#6E6E6E" fill-rule="evenodd" stroke-width="0" fill-opacity="1" />
  <path d="M395.524383544922,211.215866088867 L393.410003662109,216.95588684082 L390.084716796875,214.013793945313 L395.524383544922,211.215866088867 " stroke="#6E6E6E" fill="none" stroke-width="1" stroke-opacity="1" />
  <path d="M355.384185791016,276.651580810547 L383.424560546875,260.805206298828 " stroke="#6E6E6E" fill="none" stroke-width="1" stroke-opacity="1" />
  <path d="M388.386962890625,258.000823974609 L384.516784667969,262.737945556641 L382.332305908203,258.872497558594 L388.386962890625,258.000823974609 " stroke="none" fill="#6E6E6E" fill-rule="evenodd" stroke-width="0" fill-opacity="1" />
  <path d="M388.386962890625,258.000823974609 L384.516784667969,262.737945556641 L382.332305908203,258.872497558594 L388.386962890625,258.000823974609 " stroke="#6E6E6E" fill="none" stroke-width="1" stroke-opacity="1" />
  <path d="M357,296.71875 L375.581237792969,296.71875 " stroke="#6E6E6E" fill="none" stroke-width="1" stroke-opacity="1" />
  <path d="M381.28125,296.718719482422 L375.581237792969,298.938720703125 L375.581237792969,294.498748779297 L381.28125,296.718719482422 " stroke="none" fill="#6E6E6E" fill-rule="evenodd" stroke-width="0" fill-opacity="1" />
  <path d="M381.28125,296.718719482422 L375.581237792969,298.938720703125 L375.581237792969,294.498748779297 L381.28125,296.718719482422 " stroke="#6E6E6E" fill="none" stroke-width="1" stroke-opacity="1" />
  <path d="M355.387939453125,316.788024902344 L383.424560546875,332.632263183594 " stroke="#6E6E6E" fill="none" stroke-width="1" stroke-opacity="1" />
  <path d="M388.386962890625,335.436645507813 L382.332336425781,334.564971923828 L384.516815185547,330.699523925781 L388.386962890625,335.436645507813 " stroke="none" fill="#6E6E6E" fill-rule="evenodd" stroke-width="0" fill-opacity="1" />
  <path d="M388.386962890625,335.436645507813 L382.332336425781,334.564971923828 L384.516815185547,330.699523925781 L388.386962890625,335.436645507813 " stroke="#6E6E6E" fill="none" stroke-width="1" stroke-opacity="1" />
  <path d="M340.777404785156,320.34375 L391.747375488281,377.95263671875 " stroke="#6E6E6E" fill="none" stroke-width="1" stroke-opacity="1" />
  <path d="M395.524353027344,382.221618652344 L390.084686279297,379.423675537109 L393.410003662109,376.481597900391 L395.524353027344,382.221618652344 " stroke="none" fill="#6E6E6E" fill-rule="evenodd" stroke-width="0" fill-opacity="1" />
  <path d="M395.524353027344,382.221618652344 L390.084686279297,379.423675537109 L393.410003662109,376.481597900391 L395.524353027344,382.221618652344 " stroke="#6E6E6E" fill="none" stroke-width="1" stroke-opacity="1" />
  <path d="M333.809936523438,320.34375 L396.47314453125,426.581634521484 " stroke="#6E6E6E" fill="none" stroke-width="1" stroke-opacity="1" />
  <path d="M399.368988037109,431.491180419922 L394.560974121094,427.70947265625 L398.385284423828,425.453735351563 L399.368988037109,431.491180419922 " stroke="none" fill="#6E6E6E" fill-rule="evenodd" stroke-width="0" fill-opacity="1" />
  <path d="M399.368988037109,431.491180419922 L394.560974121094,427.70947265625 L398.385284423828,425.453735351563 L399.368988037109,431.491180419922 " stroke="#6E6E6E" fill="none" stroke-width="1" stroke-opacity="1" />
  <path d="M330.326202392578,320.34375 L399.305999755859,476.272888183594 " stroke="#6E6E6E" fill="none" stroke-width="1" stroke-opacity="1" />
  <path d="M401.611968994141,481.485565185547 L397.275756835938,477.170989990234 L401.336212158203,475.374725341797 L401.611968994141,481.485565185547 " stroke="none" fill="#6E6E6E" fill-rule="evenodd" stroke-width="0" fill-opacity="1" />
  <path d="M401.611968994141,481.485565185547 L397.275756835938,477.170989990234 L401.336212158203,475.374725341797 L401.611968994141,481.485565185547 " stroke="#6E6E6E" fill="none" stroke-width="1" stroke-opacity="1" />
  <path d="M328.235961914063,320.34375 L401.114715576172,526.272216796875 " stroke="#6E6E6E" fill="none" stroke-width="1" stroke-opacity="1" />
  <path d="M403.016418457031,531.645629882813 L399.021942138672,527.012878417969 L403.207550048828,525.531555175781 L403.016418457031,531.645629882813 " stroke="none" fill="#6E6E6E" fill-rule="evenodd" stroke-width="0" fill-opacity="1" />
  <path d="M403.016418457031,531.645629882813 L399.021942138672,527.012878417969 L403.207550048828,525.531555175781 L403.016418457031,531.645629882813 " stroke="#6E6E6E" fill="none" stroke-width="1" stroke-opacity="1" />
  <path d="M291.253936767578,273.09375 L348.496032714844,273.09375 L348.496032714844,273.09375 C353.192626953125,273.093719482422 356.999969482422,276.901062011719 356.999969482422,281.59765625 C356.999969482422,281.59765625 356.999969482422,281.597686767578 356.999969482422,281.597686767578 L357,281.597686767578 L357,311.839813232422 L356.999969482422,311.839782714844 C356.999969482422,316.536376953125 353.192626953125,320.343719482422 348.496032714844,320.343719482422 L348.496032714844,320.34375 L291.253936767578,320.34375 L291.253936767578,320.343719482422 C286.557342529297,320.34375 282.75,316.536407470703 282.75,311.839813232422 L282.75,281.597686767578 L282.749969482422,281.597686767578 C282.749969482422,276.901092529297 286.557312011719,273.09375 291.25390625,273.093719482422 " stroke="none" fill="#F2E279" fill-rule="evenodd" stroke-width="0" fill-opacity="1" />
  <text x="5.18952226638794" y="29.8967189788818" dx="0" dy="0" font-family="Arial" font-size="7.20000017166138pt" fill="#000000" style="text-anchor:start" transform="matrix(0.750000 0.000000 0.000000 0.750000 282.75 273.09375)">Upload Service </text>
  <text x="20.8628559112549" y="43.6967163085938" dx="0" dy="0" font-family="Arial" font-size="7.20000017166138pt" fill="#000000" style="text-anchor:start" transform="matrix(0.750000 0.000000 0.000000 0.750000 282.75 273.09375)">Definition</text>
  <path d="M291.253936767578,273.09375 L348.496032714844,273.09375 L348.496032714844,273.09375 C353.192626953125,273.093719482422 356.999969482422,276.901062011719 356.999969482422,281.59765625 C356.999969482422,281.59765625 356.999969482422,281.597686767578 356.999969482422,281.597686767578 L357,281.597686767578 L357,311.839813232422 L356.999969482422,311.839782714844 C356.999969482422,316.536376953125 353.192626953125,320.343719482422 348.496032714844,320.343719482422 L348.496032714844,320.34375 L291.253936767578,320.34375 L291.253936767578,320.343719482422 C286.557342529297,320.34375 282.75,316.536407470703 282.75,311.839813232422 L282.75,281.597686767578 L282.749969482422,281.597686767578 C282.749969482422,276.901092529297 286.557312011719,273.09375 291.25390625,273.093719482422 " stroke="none" fill="none" stroke-width="0.6" stroke-opacity="0" />
  <path d="M436.968719482422,498.468719482422 C436.968719482422,508.254516601563 424.502655029297,516.187438964844 409.125,516.187438964844 C393.747314453125,516.1875 381.28125,508.254547119141 381.28125,498.46875 C381.28125,498.46875 381.28125,498.46875 381.28125,498.46875 L381.281219482422,498.46875 C381.281219482422,488.682952880859 393.747283935547,480.75 409.124969482422,480.75 C424.502624511719,480.749969482422 436.968719482422,488.682922363281 436.968719482422,498.46875 C436.968719482422,498.46875 436.968719482422,498.46875 436.968719482422,498.46875 " stroke="none" fill="#82CAED" fill-rule="evenodd" stroke-width="0" fill-opacity="1" />
  <text x="17.2661895751953" y="15.1217184066772" dx="0" dy="0" font-family="Arial" font-size="7.20000017166138pt" fill="#000000" style="text-anchor:start" transform="matrix(0.750000 0.000000 0.000000 0.750000 381.28125 480.75)">SOAP </text>
  <text x="13.8261890411377" y="28.9217185974121" dx="0" dy="0" font-family="Arial" font-size="7.20000017166138pt" fill="#000000" style="text-anchor:start" transform="matrix(0.750000 0.000000 0.000000 0.750000 381.28125 480.75)">Service </text>
  <text x="21.4961891174316" y="42.7217178344727" dx="0" dy="0" font-family="Arial" font-size="7.20000017166138pt" fill="#000000" style="text-anchor:start" transform="matrix(0.750000 0.000000 0.000000 0.750000 381.28125 480.75)">URL</text>
  <path d="M436.968719482422,498.468719482422 C436.968719482422,508.254516601563 424.502655029297,516.187438964844 409.125,516.187438964844 C393.747314453125,516.1875 381.28125,508.254547119141 381.28125,498.46875 C381.28125,498.46875 381.28125,498.46875 381.28125,498.46875 L381.281219482422,498.46875 C381.281219482422,488.682952880859 393.747283935547,480.75 409.124969482422,480.75 C424.502624511719,480.749969482422 436.968719482422,488.682922363281 436.968719482422,498.46875 C436.968719482422,498.46875 436.968719482422,498.46875 436.968719482422,498.46875 " stroke="none" fill="none" stroke-width="0.6" stroke-opacity="0" />
  <path d="M436.968719482422,397.593719482422 C436.968719482422,407.379516601563 424.502655029297,415.312469482422 409.125,415.312469482422 C393.747314453125,415.3125 381.28125,407.379547119141 381.28125,397.59375 C381.28125,397.59375 381.28125,397.59375 381.28125,397.59375 L381.281219482422,397.59375 C381.281219482422,387.807952880859 393.747283935547,379.875 409.124969482422,379.875 C424.502624511719,379.874969482422 436.968719482422,387.807922363281 436.968719482422,397.59375 C436.968719482422,397.59375 436.968719482422,397.59375 436.968719482422,397.59375 " stroke="none" fill="#82CAED" fill-rule="evenodd" stroke-width="0" fill-opacity="1" />
  <text x="17.6095237731934" y="15.1217184066772" dx="0" dy="0" font-family="Arial" font-size="7.20000017166138pt" fill="#000000" style="text-anchor:start" transform="matrix(0.750000 0.000000 0.000000 0.750000 381.28125 379.875)">REST </text>
  <text x="13.8261890411377" y="28.9217185974121" dx="0" dy="0" font-family="Arial" font-size="7.20000017166138pt" fill="#000000" style="text-anchor:start" transform="matrix(0.750000 0.000000 0.000000 0.750000 381.28125 379.875)">Service </text>
  <text x="21.4961891174316" y="42.7217178344727" dx="0" dy="0" font-family="Arial" font-size="7.20000017166138pt" fill="#000000" style="text-anchor:start" transform="matrix(0.750000 0.000000 0.000000 0.750000 381.28125 379.875)">URL</text>
  <path d="M436.968719482422,397.593719482422 C436.968719482422,407.379516601563 424.502655029297,415.312469482422 409.125,415.312469482422 C393.747314453125,415.3125 381.28125,407.379547119141 381.28125,397.59375 C381.28125,397.59375 381.28125,397.59375 381.28125,397.59375 L381.281219482422,397.59375 C381.281219482422,387.807952880859 393.747283935547,379.875 409.124969482422,379.875 C424.502624511719,379.874969482422 436.968719482422,387.807922363281 436.968719482422,397.59375 C436.968719482422,397.59375 436.968719482422,397.59375 436.968719482422,397.59375 " stroke="none" fill="none" stroke-width="0.6" stroke-opacity="0" />
  <path d="M436.968719482422,195.843734741211 C436.968719482422,205.629531860352 424.502655029297,213.562484741211 409.125,213.562484741211 C393.747314453125,213.5625 381.28125,205.629547119141 381.28125,195.84375 C381.28125,195.84375 381.28125,195.84375 381.28125,195.84375 L381.281219482422,195.84375 C381.281219482422,186.057968139648 393.747283935547,178.125 409.124969482422,178.125 C424.502624511719,178.124984741211 436.968719482422,186.05793762207 436.968719482422,195.84375 C436.968719482422,195.84375 436.968719482422,195.84375 436.968719482422,195.84375 " stroke="none" fill="#82CAED" fill-rule="evenodd" stroke-width="0" fill-opacity="1" />
  <text x="1.15285563468933" y="15.1217184066772" dx="0" dy="0" font-family="Arial" font-size="7.20000017166138pt" fill="#000000" style="text-anchor:start" transform="matrix(0.750000 0.000000 0.000000 0.750000 381.28125 178.125)">Hosted Map </text>
  <text x="0.489522337913513" y="28.9217185974121" dx="0" dy="0" font-family="Arial" font-size="7.20000017166138pt" fill="#000000" style="text-anchor:start" transform="matrix(0.750000 0.000000 0.000000 0.750000 381.28125 178.125)">Service Item </text>
  <text x="30.1668567657471" y="42.7217178344727" dx="0" dy="0" font-family="Arial" font-size="7.20000017166138pt" fill="#000000" style="text-anchor:start" transform="matrix(0.750000 0.000000 0.000000 0.750000 381.28125 178.125)">ID</text>
  <path d="M436.968719482422,195.843734741211 C436.968719482422,205.629531860352 424.502655029297,213.562484741211 409.125,213.562484741211 C393.747314453125,213.5625 381.28125,205.629547119141 381.28125,195.84375 C381.28125,195.84375 381.28125,195.84375 381.28125,195.84375 L381.281219482422,195.84375 C381.281219482422,186.057968139648 393.747283935547,178.125 409.124969482422,178.125 C424.502624511719,178.124984741211 436.968719482422,186.05793762207 436.968719482422,195.84375 C436.968719482422,195.84375 436.968719482422,195.84375 436.968719482422,195.84375 " stroke="none" fill="none" stroke-width="0.6" stroke-opacity="0" />
  <path d="M436.968719482422,145.406234741211 C436.968719482422,155.192031860352 424.502655029297,163.124984741211 409.125,163.124984741211 C393.747314453125,163.125 381.28125,155.192047119141 381.28125,145.40625 C381.28125,145.40625 381.28125,145.40625 381.28125,145.40625 L381.281219482422,145.40625 C381.281219482422,135.620468139648 393.747283935547,127.6875 409.124969482422,127.6875 C424.502624511719,127.687492370605 436.968719482422,135.62043762207 436.968719482422,145.40625 C436.968719482422,145.40625 436.968719482422,145.40625 436.968719482422,145.40625 " stroke="none" fill="#82CAED" fill-rule="evenodd" stroke-width="0" fill-opacity="1" />
  <text x="14.4895219802856" y="15.1217184066772" dx="0" dy="0" font-family="Arial" font-size="7.20000017166138pt" fill="#000000" style="text-anchor:start" transform="matrix(0.750000 0.000000 0.000000 0.750000 381.28125 127.6875)">Hosted </text>
  <text x="13.4888553619385" y="28.9217185974121" dx="0" dy="0" font-family="Arial" font-size="7.20000017166138pt" fill="#000000" style="text-anchor:start" transform="matrix(0.750000 0.000000 0.000000 0.750000 381.28125 127.6875)">Feature </text>
  <text x="2.8261890411377" y="42.7217178344727" dx="0" dy="0" font-family="Arial" font-size="7.20000017166138pt" fill="#000000" style="text-anchor:start" transform="matrix(0.750000 0.000000 0.000000 0.750000 381.28125 127.6875)">Service It</text>
  <text x="50.8415222167969" y="42.7217178344727" dx="0" dy="0" font-family="Arial" font-size="7.20000017166138pt" fill="#000000" style="text-anchor:start" transform="matrix(0.750000 0.000000 0.000000 0.750000 381.28125 127.6875)"> ...</text>
  <path d="M436.968719482422,145.406234741211 C436.968719482422,155.192031860352 424.502655029297,163.124984741211 409.125,163.124984741211 C393.747314453125,163.125 381.28125,155.192047119141 381.28125,145.40625 C381.28125,145.40625 381.28125,145.40625 381.28125,145.40625 L381.281219482422,145.40625 C381.281219482422,135.620468139648 393.747283935547,127.6875 409.124969482422,127.6875 C424.502624511719,127.687492370605 436.968719482422,135.62043762207 436.968719482422,145.40625 C436.968719482422,145.40625 436.968719482422,145.40625 436.968719482422,145.40625 " stroke="none" fill="none" stroke-width="0.6" stroke-opacity="0" />
  <path d="M446.249969482422,38.6249923706055 C446.249969482422,51.6727180480957 429.628540039063,62.2499923706055 409.125,62.2499961853027 C388.621429443359,62.25 372,51.6727294921875 372,38.625 C372,38.625 372,38.625 372,38.625 L372,38.6250152587891 C371.999969482422,25.5772914886475 388.621398925781,15.0000085830688 409.124938964844,15 C429.628509521484,14.9999895095825 446.249969482422,25.5772552490234 446.249969482422,38.625 C446.249969482422,38.625 446.249969482422,38.625 446.249969482422,38.625 " stroke="none" fill="#83CC7C" fill-rule="evenodd" stroke-width="0" fill-opacity="1" />
  <text x="3.52285575866699" y="36.7967185974121" dx="0" dy="0" font-family="Arial" font-size="7.20000017166138pt" fill="#000000" style="text-anchor:start" transform="matrix(0.750000 0.000000 0.000000 0.750000 372 15)">Cached Service</text>
  <path d="M446.249969482422,38.6249923706055 C446.249969482422,51.6727180480957 429.628540039063,62.2499923706055 409.125,62.2499961853027 C388.621429443359,62.25 372,51.6727294921875 372,38.625 C372,38.625 372,38.625 372,38.625 L372,38.6250152587891 C371.999969482422,25.5772914886475 388.621398925781,15.0000085830688 409.124938964844,15 C429.628509521484,14.9999895095825 446.249969482422,25.5772552490234 446.249969482422,38.625 C446.249969482422,38.625 446.249969482422,38.625 446.249969482422,38.625 " stroke="none" fill="none" stroke-width="0.6" stroke-opacity="0" />
  <path d="M436.968719482422,94.9687423706055 C436.968719482422,104.754531860352 424.502655029297,112.687492370605 409.125,112.687492370605 C393.747314453125,112.6875 381.28125,104.754547119141 381.28125,94.96875 C381.28125,94.96875 381.28125,94.96875 381.28125,94.96875 L381.281219482422,94.9687576293945 C381.281219482422,85.1829681396484 393.747283935547,77.25 409.124969482422,77.25 C424.502624511719,77.2499923706055 436.968719482422,85.1829376220703 436.968719482422,94.96875 C436.968719482422,94.96875 436.968719482422,94.96875 436.968719482422,94.96875 " stroke="none" fill="#82CAED" fill-rule="evenodd" stroke-width="0" fill-opacity="1" />
  <text x="13.4888553619385" y="15.1217184066772" dx="0" dy="0" font-family="Arial" font-size="7.20000017166138pt" fill="#000000" style="text-anchor:start" transform="matrix(0.750000 0.000000 0.000000 0.750000 381.28125 77.25)">Feature </text>
  <text x="13.8261890411377" y="28.9217185974121" dx="0" dy="0" font-family="Arial" font-size="7.20000017166138pt" fill="#000000" style="text-anchor:start" transform="matrix(0.750000 0.000000 0.000000 0.750000 381.28125 77.25)">Service </text>
  <text x="21.4961891174316" y="42.7217178344727" dx="0" dy="0" font-family="Arial" font-size="7.20000017166138pt" fill="#000000" style="text-anchor:start" transform="matrix(0.750000 0.000000 0.000000 0.750000 381.28125 77.25)">URL</text>
  <path d="M436.968719482422,94.9687423706055 C436.968719482422,104.754531860352 424.502655029297,112.687492370605 409.125,112.687492370605 C393.747314453125,112.6875 381.28125,104.754547119141 381.28125,94.96875 C381.28125,94.96875 381.28125,94.96875 381.28125,94.96875 L381.281219482422,94.9687576293945 C381.281219482422,85.1829681396484 393.747283935547,77.25 409.124969482422,77.25 C424.502624511719,77.2499923706055 436.968719482422,85.1829376220703 436.968719482422,94.96875 C436.968719482422,94.96875 436.968719482422,94.96875 436.968719482422,94.96875 " stroke="none" fill="none" stroke-width="0.6" stroke-opacity="0" />
  <path d="M436.968719482422,347.156219482422 C436.968719482422,356.942016601563 424.502655029297,364.874969482422 409.125,364.874969482422 C393.747314453125,364.875 381.28125,356.942047119141 381.28125,347.15625 C381.28125,347.15625 381.28125,347.15625 381.28125,347.15625 L381.281219482422,347.15625 C381.281219482422,337.370452880859 393.747283935547,329.4375 409.124969482422,329.4375 C424.502624511719,329.437469482422 436.968719482422,337.370422363281 436.968719482422,347.15625 C436.968719482422,347.15625 436.968719482422,347.15625 436.968719482422,347.15625 " stroke="none" fill="#82CAED" fill-rule="evenodd" stroke-width="0" fill-opacity="1" />
  <text x="-0.509811043739319" y="22.0217189788818" dx="0" dy="0" font-family="Arial" font-size="7.20000017166138pt" fill="#000000" style="text-anchor:start" transform="matrix(0.750000 0.000000 0.000000 0.750000 381.28125 329.4375)">Map Service </text>
  <text x="21.4961891174316" y="35.8217163085938" dx="0" dy="0" font-family="Arial" font-size="7.20000017166138pt" fill="#000000" style="text-anchor:start" transform="matrix(0.750000 0.000000 0.000000 0.750000 381.28125 329.4375)">URL</text>
  <path d="M436.968719482422,347.156219482422 C436.968719482422,356.942016601563 424.502655029297,364.874969482422 409.125,364.874969482422 C393.747314453125,364.875 381.28125,356.942047119141 381.28125,347.15625 C381.28125,347.15625 381.28125,347.15625 381.28125,347.15625 L381.281219482422,347.15625 C381.281219482422,337.370452880859 393.747283935547,329.4375 409.124969482422,329.4375 C424.502624511719,329.437469482422 436.968719482422,337.370422363281 436.968719482422,347.15625 C436.968719482422,347.15625 436.968719482422,347.15625 436.968719482422,347.15625 " stroke="none" fill="none" stroke-width="0.6" stroke-opacity="0" />
  <path d="M436.968719482422,296.718719482422 C436.968719482422,306.504516601563 424.502655029297,314.437469482422 409.125,314.437469482422 C393.747314453125,314.4375 381.28125,306.504547119141 381.28125,296.71875 C381.28125,296.71875 381.28125,296.71875 381.28125,296.71875 L381.281219482422,296.71875 C381.281219482422,286.932952880859 393.747283935547,279 409.124969482422,279 C424.502624511719,278.999969482422 436.968719482422,286.932922363281 436.968719482422,296.71875 C436.968719482422,296.71875 436.968719482422,296.71875 436.968719482422,296.71875 " stroke="none" fill="#82CAED" fill-rule="evenodd" stroke-width="0" fill-opacity="1" />
  <text x="11.8221883773804" y="28.9217185974121" dx="0" dy="0" font-family="Arial" font-size="7.20000017166138pt" fill="#000000" style="text-anchor:start" transform="matrix(0.750000 0.000000 0.000000 0.750000 381.28125 279)">Layer ID</text>
  <path d="M436.968719482422,296.718719482422 C436.968719482422,306.504516601563 424.502655029297,314.437469482422 409.125,314.437469482422 C393.747314453125,314.4375 381.28125,306.504547119141 381.28125,296.71875 C381.28125,296.71875 381.28125,296.71875 381.28125,296.71875 L381.281219482422,296.71875 C381.281219482422,286.932952880859 393.747283935547,279 409.124969482422,279 C424.502624511719,278.999969482422 436.968719482422,286.932922363281 436.968719482422,296.71875 C436.968719482422,296.71875 436.968719482422,296.71875 436.968719482422,296.71875 " stroke="none" fill="none" stroke-width="0.6" stroke-opacity="0" />
  <path d="M436.968719482422,448.031219482422 C436.968719482422,457.817016601563 424.502655029297,465.749969482422 409.125,465.749969482422 C393.747314453125,465.75 381.28125,457.817047119141 381.28125,448.03125 C381.28125,448.03125 381.28125,448.03125 381.28125,448.03125 L381.281219482422,448.03125 C381.281219482422,438.245452880859 393.747283935547,430.3125 409.124969482422,430.3125 C424.502624511719,430.312469482422 436.968719482422,438.245422363281 436.968719482422,448.03125 C436.968719482422,448.03125 436.968719482422,448.03125 436.968719482422,448.03125 " stroke="none" fill="#82CAED" fill-rule="evenodd" stroke-width="0" fill-opacity="1" />
  <text x="13.8261890411377" y="22.0217189788818" dx="0" dy="0" font-family="Arial" font-size="7.20000017166138pt" fill="#000000" style="text-anchor:start" transform="matrix(0.750000 0.000000 0.000000 0.750000 381.28125 430.3125)">Service </text>
  <text x="21.4961891174316" y="35.8217163085938" dx="0" dy="0" font-family="Arial" font-size="7.20000017166138pt" fill="#000000" style="text-anchor:start" transform="matrix(0.750000 0.000000 0.000000 0.750000 381.28125 430.3125)">URL</text>
  <path d="M436.968719482422,448.031219482422 C436.968719482422,457.817016601563 424.502655029297,465.749969482422 409.125,465.749969482422 C393.747314453125,465.75 381.28125,457.817047119141 381.28125,448.03125 C381.28125,448.03125 381.28125,448.03125 381.28125,448.03125 L381.281219482422,448.03125 C381.281219482422,438.245452880859 393.747283935547,430.3125 409.124969482422,430.3125 C424.502624511719,430.312469482422 436.968719482422,438.245422363281 436.968719482422,448.03125 C436.968719482422,448.03125 436.968719482422,448.03125 436.968719482422,448.03125 " stroke="none" fill="none" stroke-width="0.6" stroke-opacity="0" />
  <path d="M436.968719482422,246.281234741211 C436.968719482422,256.067016601563 424.502655029297,263.999969482422 409.125,263.999969482422 C393.747314453125,264 381.28125,256.067047119141 381.28125,246.28125 C381.28125,246.28125 381.28125,246.28125 381.28125,246.28125 L381.281219482422,246.28125 C381.281219482422,236.495468139648 393.747283935547,228.5625 409.124969482422,228.5625 C424.502624511719,228.562484741211 436.968719482422,236.49543762207 436.968719482422,246.28125 C436.968719482422,246.28125 436.968719482422,246.28125 436.968719482422,246.28125 " stroke="none" fill="#82CAED" fill-rule="evenodd" stroke-width="0" fill-opacity="1" />
  <text x="14.4895219802856" y="15.1217184066772" dx="0" dy="0" font-family="Arial" font-size="7.20000017166138pt" fill="#000000" style="text-anchor:start" transform="matrix(0.750000 0.000000 0.000000 0.750000 381.28125 228.5625)">Hosted </text>
  <text x="6.14952230453491" y="28.9217185974121" dx="0" dy="0" font-family="Arial" font-size="7.20000017166138pt" fill="#000000" style="text-anchor:start" transform="matrix(0.750000 0.000000 0.000000 0.750000 381.28125 228.5625)">Vector Tile </text>
  <text x="2.8261890411377" y="42.7217178344727" dx="0" dy="0" font-family="Arial" font-size="7.20000017166138pt" fill="#000000" style="text-anchor:start" transform="matrix(0.750000 0.000000 0.000000 0.750000 381.28125 228.5625)">Service It</text>
  <text x="50.8415222167969" y="42.7217178344727" dx="0" dy="0" font-family="Arial" font-size="7.20000017166138pt" fill="#000000" style="text-anchor:start" transform="matrix(0.750000 0.000000 0.000000 0.750000 381.28125 228.5625)"> ...</text>
  <path d="M436.968719482422,246.281234741211 C436.968719482422,256.067016601563 424.502655029297,263.999969482422 409.125,263.999969482422 C393.747314453125,264 381.28125,256.067047119141 381.28125,246.28125 C381.28125,246.28125 381.28125,246.28125 381.28125,246.28125 L381.281219482422,246.28125 C381.281219482422,236.495468139648 393.747283935547,228.5625 409.124969482422,228.5625 C424.502624511719,228.562484741211 436.968719482422,236.49543762207 436.968719482422,246.28125 C436.968719482422,246.28125 436.968719482422,246.28125 436.968719482422,246.28125 " stroke="none" fill="none" stroke-width="0.6" stroke-opacity="0" />
  <path d="M436.968719482422,548.906188964844 C436.968719482422,558.692016601563 424.502655029297,566.624938964844 409.125,566.624938964844 C393.747314453125,566.625 381.28125,558.692016601563 381.28125,548.90625 C381.28125,548.90625 381.28125,548.90625 381.28125,548.90625 L381.281219482422,548.90625 C381.281219482422,539.120422363281 393.747283935547,531.1875 409.124969482422,531.1875 C424.502624511719,531.187438964844 436.968719482422,539.120422363281 436.968719482422,548.90625 C436.968719482422,548.90625 436.968719482422,548.90625 436.968719482422,548.90625 " stroke="none" fill="#82CAED" fill-rule="evenodd" stroke-width="0" fill-opacity="1" />
  <text x="6.14952230453491" y="15.1217184066772" dx="0" dy="0" font-family="Arial" font-size="7.20000017166138pt" fill="#000000" style="text-anchor:start" transform="matrix(0.750000 0.000000 0.000000 0.750000 381.28125 531.1875)">Vector Tile </text>
  <text x="13.8261890411377" y="28.9217185974121" dx="0" dy="0" font-family="Arial" font-size="7.20000017166138pt" fill="#000000" style="text-anchor:start" transform="matrix(0.750000 0.000000 0.000000 0.750000 381.28125 531.1875)">Service </text>
  <text x="21.4961891174316" y="42.7217178344727" dx="0" dy="0" font-family="Arial" font-size="7.20000017166138pt" fill="#000000" style="text-anchor:start" transform="matrix(0.750000 0.000000 0.000000 0.750000 381.28125 531.1875)">URL</text>
  <path d="M436.968719482422,548.906188964844 C436.968719482422,558.692016601563 424.502655029297,566.624938964844 409.125,566.624938964844 C393.747314453125,566.625 381.28125,558.692016601563 381.28125,548.90625 C381.28125,548.90625 381.28125,548.90625 381.28125,548.90625 L381.281219482422,548.90625 C381.281219482422,539.120422363281 393.747283935547,531.1875 409.124969482422,531.1875 C424.502624511719,531.187438964844 436.968719482422,539.120422363281 436.968719482422,548.90625 C436.968719482422,548.90625 436.968719482422,548.90625 436.968719482422,548.90625 " stroke="none" fill="none" stroke-width="0.6" stroke-opacity="0" />
  <path d="M267.749969482422,358.968719482422 C267.749969482422,372.016448974609 251.128555297852,382.593719482422 230.625,382.593719482422 C210.121429443359,382.59375 193.5,372.016479492188 193.5,358.96875 C193.5,358.96875 193.5,358.96875 193.5,358.96875 L193.5,358.96875 C193.499969482422,345.921020507813 210.121398925781,335.34375 230.624954223633,335.34375 C251.128524780273,335.343719482422 267.749969482422,345.920989990234 267.749969482422,358.96875 C267.749969482422,358.96875 267.749969482422,358.96875 267.749969482422,358.96875 " stroke="none" fill="#70AECC" fill-rule="evenodd" stroke-width="0" fill-opacity="1" />
  <text x="16.5368556976318" y="29.8967189788818" dx="0" dy="0" font-family="Arial" font-size="7.20000017166138pt" fill="#000000" style="text-anchor:start" transform="matrix(0.750000 0.000000 0.000000 0.750000 193.5 335.34375)">My Hosted </text>
  <text x="23.1995220184326" y="43.6967163085938" dx="0" dy="0" font-family="Arial" font-size="7.20000017166138pt" fill="#000000" style="text-anchor:start" transform="matrix(0.750000 0.000000 0.000000 0.750000 193.5 335.34375)">Services</text>
  <path d="M267.749969482422,358.968719482422 C267.749969482422,372.016448974609 251.128555297852,382.593719482422 230.625,382.593719482422 C210.121429443359,382.59375 193.5,372.016479492188 193.5,358.96875 C193.5,358.96875 193.5,358.96875 193.5,358.96875 L193.5,358.96875 C193.499969482422,345.921020507813 210.121398925781,335.34375 230.624954223633,335.34375 C251.128524780273,335.343719482422 267.749969482422,345.920989990234 267.749969482422,358.96875 C267.749969482422,358.96875 267.749969482422,358.96875 267.749969482422,358.96875 " stroke="none" fill="none" stroke-width="0.6" stroke-opacity="0" />
  <path d="M112.753936767578,273.09375 L169.996047973633,273.09375 L169.996032714844,273.09375 C174.692626953125,273.093719482422 178.499984741211,276.901062011719 178.499984741211,281.59765625 C178.499984741211,281.59765625 178.499984741211,281.597686767578 178.499984741211,281.597686767578 L178.5,281.597686767578 L178.5,311.839813232422 L178.499984741211,311.839782714844 C178.499984741211,316.536376953125 174.692642211914,320.343719482422 169.996047973633,320.343719482422 L169.996047973633,320.34375 L112.753936767578,320.34375 L112.753936767578,320.343719482422 C108.057342529297,320.34375 104.25,316.536407470703 104.25,311.839813232422 L104.25,281.597686767578 L104.249992370605,281.597686767578 C104.249992370605,276.901092529297 108.057327270508,273.09375 112.753921508789,273.093719482422 " stroke="none" fill="#F2E279" fill-rule="evenodd" stroke-width="0" fill-opacity="1" />
  <text x="8.85285568237305" y="36.7967185974121" dx="0" dy="0" font-family="Arial" font-size="7.20000017166138pt" fill="#000000" style="text-anchor:start" transform="matrix(0.750000 0.000000 0.000000 0.750000 104.25 273.09375)">Stage Service</text>
  <path d="M112.753936767578,273.09375 L169.996047973633,273.09375 L169.996032714844,273.09375 C174.692626953125,273.093719482422 178.499984741211,276.901062011719 178.499984741211,281.59765625 C178.499984741211,281.59765625 178.499984741211,281.597686767578 178.499984741211,281.597686767578 L178.5,281.597686767578 L178.5,311.839813232422 L178.499984741211,311.839782714844 C178.499984741211,316.536376953125 174.692642211914,320.343719482422 169.996047973633,320.343719482422 L169.996047973633,320.34375 L112.753936767578,320.34375 L112.753936767578,320.343719482422 C108.057342529297,320.34375 104.25,316.536407470703 104.25,311.839813232422 L104.25,281.597686767578 L104.249992370605,281.597686767578 C104.249992370605,276.901092529297 108.057327270508,273.09375 112.753921508789,273.093719482422 " stroke="none" fill="none" stroke-width="0.6" stroke-opacity="0" />
  <path d="M267.749969482422,296.718719482422 C267.749969482422,309.766448974609 251.128555297852,320.343719482422 230.625,320.343719482422 C210.121429443359,320.34375 193.5,309.766479492188 193.5,296.71875 C193.5,296.71875 193.5,296.71875 193.5,296.71875 L193.5,296.71875 C193.499969482422,283.671020507813 210.121398925781,273.09375 230.624954223633,273.09375 C251.128524780273,273.093719482422 267.749969482422,283.670989990234 267.749969482422,296.71875 C267.749969482422,296.71875 267.749969482422,296.71875 267.749969482422,296.71875 " stroke="none" fill="#83CC7C" fill-rule="evenodd" stroke-width="0" fill-opacity="1" />
  <text x="2.85618877410889" y="36.7967185974121" dx="0" dy="0" font-family="Arial" font-size="7.20000017166138pt" fill="#000000" style="text-anchor:start" transform="matrix(0.750000 0.000000 0.000000 0.750000 193.5 273.09375)">COVID_19_in</text>
  <text x="75.2248611450195" y="36.7967185974121" dx="0" dy="0" font-family="Arial" font-size="7.20000017166138pt" fill="#000000" style="text-anchor:start" transform="matrix(0.750000 0.000000 0.000000 0.750000 193.5 273.09375)"> ...</text>
  <path d="M267.749969482422,296.718719482422 C267.749969482422,309.766448974609 251.128555297852,320.343719482422 230.625,320.343719482422 C210.121429443359,320.34375 193.5,309.766479492188 193.5,296.71875 C193.5,296.71875 193.5,296.71875 193.5,296.71875 L193.5,296.71875 C193.499969482422,283.671020507813 210.121398925781,273.09375 230.624954223633,273.09375 C251.128524780273,273.093719482422 267.749969482422,283.670989990234 267.749969482422,296.71875 C267.749969482422,296.71875 267.749969482422,296.71875 267.749969482422,296.71875 " stroke="none" fill="none" stroke-width="0.6" stroke-opacity="0" />
  <path d="M89.2499923706055,296.718719482422 C89.2499847412109,309.766448974609 72.6285629272461,320.343719482422 52.1250114440918,320.343719482422 C31.6214408874512,320.34375 15.0000057220459,309.766479492188 15,296.71875 C15,296.71875 15,296.71875 15,296.71875 L15,296.71875 C14.9999799728394,283.671020507813 31.6213989257813,273.09375 52.1249656677246,273.09375 C72.628532409668,273.093719482422 89.2499771118164,283.670989990234 89.2499923706055,296.71875 C89.2499923706055,296.71875 89.2499923706055,296.71875 89.2499923706055,296.71875 " stroke="none" fill="#70AECC" fill-rule="evenodd" stroke-width="0" fill-opacity="1" />
  <text x="2.85618877410889" y="36.7967185974121" dx="0" dy="0" font-family="Arial" font-size="7.20000017166138pt" fill="#000000" style="text-anchor:start" transform="matrix(0.750000 0.000000 0.000000 0.750000 15 273.09375)">COVID19_in_</text>
  <text x="75.2248611450195" y="36.7967185974121" dx="0" dy="0" font-family="Arial" font-size="7.20000017166138pt" fill="#000000" style="text-anchor:start" transform="matrix(0.750000 0.000000 0.000000 0.750000 15 273.09375)"> ...</text>
  <path d="M89.2499923706055,296.718719482422 C89.2499847412109,309.766448974609 72.6285629272461,320.343719482422 52.1250114440918,320.343719482422 C31.6214408874512,320.34375 15.0000057220459,309.766479492188 15,296.71875 C15,296.71875 15,296.71875 15,296.71875 L15,296.71875 C14.9999799728394,283.671020507813 31.6213989257813,273.09375 52.1249656677246,273.09375 C72.628532409668,273.093719482422 89.2499771118164,283.670989990234 89.2499923706055,296.71875 C89.2499923706055,296.71875 89.2499923706055,296.71875 89.2499923706055,296.71875 " stroke="none" fill="none" stroke-width="0.6" stroke-opacity="0" />
</svg>